<?xml version="1.0" encoding="UTF-8"?>
<COLLADA xmlns="http://www.collada.org/2005/11/COLLADASchema" version="1.4.1">
    <asset>
        <contributor>
            <author>VCGLab</author>
            <authoring_tool>VCGLib | MeshLab</authoring_tool>
        </contributor>
        <up_axis>Y_UP</up_axis>
        <created>Do. Aug 4 14:31:19 2016</created>
        <modified>Do. Aug 4 14:31:19 2016</modified>
    </asset>
    <library_images/>
    <library_materials/>
    <library_effects/>
    <library_geometries>
        <geometry id="shape0-lib" name="shape0">
            <mesh>
                <source id="shape0-lib-positions" name="position">
                    <float_array id="shape0-lib-positions-array" count="48">0.32 0.7 0 0.32 0.8 0 0.32 0.7 0.2 0.09 0.7 0 0 0.7 0 0 0.8 0 0 0.7 0.2 0 0.8 0.2 0.32 0.8 0.2 0.23 0 0 0.23 0.7 0 0.23 0 0.2 0.23 0.7 0.2 0.09 0.7 0.2 0.09 0 0.2 0.09 0 0</float_array>
                    <technique_common>
                        <accessor count="16" source="#shape0-lib-positions-array" stride="3">
                            <param name="X" type="float"/>
                            <param name="Y" type="float"/>
                            <param name="Z" type="float"/>
                        </accessor>
                    </technique_common>
                </source>
                <source id="shape0-lib-normals" name="normal">
                    <float_array id="shape0-lib-normals-array" count="84">1 0 0 1 0 0 0 0 -1 0 0 -1 0 0 -1 0 0 -1 0 0 -1 0 0 -1 -1 0 0 -1 0 0 0 0 1 0 0 1 0 0 1 0 0 1 0 0 1 0 0 1 0 1 0 0 1 0 0 -1 0 0 -1 0 0 -1 0 0 -1 0 1 0 0 1 0 0 0 -1 0 0 -1 0 -1 0 0 -1 0 0</float_array>
                    <technique_common>
                        <accessor count="28" source="#shape0-lib-normals-array" stride="3">
                            <param name="X" type="float"/>
                            <param name="Y" type="float"/>
                            <param name="Z" type="float"/>
                        </accessor>
                    </technique_common>
                </source>
                <vertices id="shape0-lib-vertices">
                    <input semantic="POSITION" source="#shape0-lib-positions"/>
                </vertices>
                <triangles count="28">
                    <input offset="0" semantic="VERTEX" source="#shape0-lib-vertices"/>
                    <input offset="1" semantic="NORMAL" source="#shape0-lib-normals"/>
                    <p>0 0 1 0 2 0 2 1 1 1 8 1 3 2 4 2 5 2 1 3 0 3 10 3 9 4 15 4 10 4 10 5 15 5 3 5 10 6 3 6 1 6 1 7 3 7 5 7 6 8 7 8 4 8 4 9 7 9 5 9 7 10 6 10 8 10 8 11 6 11 13 11 2 12 8 12 12 12 12 13 8 13 13 13 12 14 13 14 11 14 11 15 13 15 14 15 5 16 7 16 1 16 1 17 7 17 8 17 9 18 11 18 15 18 15 19 11 19 14 19 12 20 10 20 2 20 2 21 10 21 0 21 11 22 9 22 12 22 12 23 9 23 10 23 6 24 4 24 13 24 13 25 4 25 3 25 13 26 3 26 14 26 14 27 3 27 15 27</p>
                </triangles>
            </mesh>
        </geometry>
    </library_geometries>
    <library_visual_scenes>
        <visual_scene id="VisualSceneNode" name="VisualScene">
            <node id="node" name="node">
                <instance_geometry url="#shape0-lib">
                    <bind_material>
                        <technique_common/>
                    </bind_material>
                </instance_geometry>
            </node>
        </visual_scene>
    </library_visual_scenes>
    <scene>
        <instance_visual_scene url="#VisualSceneNode"/>
    </scene>
</COLLADA>
